<svg width="779" height="12" viewBox="0 0 779 12" fill="none" xmlns="http://www.w3.org/2000/svg">
<rect y="12" width="12" height="389.5" transform="rotate(-90 0 12)" fill="url(#paint0_linear_4_46)"/>
<rect x="389.5" y="12" width="12" height="389.5" transform="rotate(-90 389.5 12)" fill="url(#paint1_linear_4_46)"/>
<defs>
<linearGradient id="paint0_linear_4_46" x1="6" y1="12" x2="6" y2="401.5" gradientUnits="userSpaceOnUse">
<stop stop-color="#00E0FF"/>
<stop offset="1" stop-color="#1400FF"/>
</linearGradient>
<linearGradient id="paint1_linear_4_46" x1="395.5" y1="12" x2="395.5" y2="401.5" gradientUnits="userSpaceOnUse">
<stop stop-color="#FFA800"/>
<stop offset="1" stop-color="#FFF500" stop-opacity="0"/>
</linearGradient>
</defs>
</svg>
